<?xml version="1.0" encoding="UTF-8" standalone="no"?>
<!-- Created with Inkscape (http://www.inkscape.org/) -->

<svg
   width="210mm"
   height="297mm"
   viewBox="0 0 210 297"
   version="1.1"
   id="svg1"
   inkscape:version="1.3.2 (091e20ef0f, 2023-11-25)"
   sodipodi:docname="design-deas.svg"
   xmlns:inkscape="http://www.inkscape.org/namespaces/inkscape"
   xmlns:sodipodi="http://sodipodi.sourceforge.net/DTD/sodipodi-0.dtd"
   xmlns:xlink="http://www.w3.org/1999/xlink"
   xmlns="http://www.w3.org/2000/svg"
   xmlns:svg="http://www.w3.org/2000/svg">
  <sodipodi:namedview
     id="namedview1"
     pagecolor="#505050"
     bordercolor="#eeeeee"
     borderopacity="1"
     inkscape:showpageshadow="0"
     inkscape:pageopacity="0"
     inkscape:pagecheckerboard="0"
     inkscape:deskcolor="#d1d1d1"
     inkscape:document-units="mm"
     inkscape:zoom="0.72248176"
     inkscape:cx="860.22933"
     inkscape:cy="348.79773"
     inkscape:window-width="845"
     inkscape:window-height="475"
     inkscape:window-x="777"
     inkscape:window-y="180"
     inkscape:window-maximized="0"
     inkscape:current-layer="layer1" />
  <defs
     id="defs1">
    <linearGradient
       id="linearGradient23"
       inkscape:collect="always">
      <stop
         style="stop-color:#7affab;stop-opacity:1;"
         offset="0"
         id="stop23" />
      <stop
         style="stop-color:#49ff6c;stop-opacity:1;"
         offset="0.2"
         id="stop25" />
      <stop
         style="stop-color:#1e1eaf;stop-opacity:0;"
         offset="1"
         id="stop24" />
    </linearGradient>
    <linearGradient
       id="linearGradient20"
       inkscape:collect="always">
      <stop
         style="stop-color:#5dffff;stop-opacity:1;"
         offset="0"
         id="stop20" />
      <stop
         style="stop-color:#8b91ff;stop-opacity:0;"
         offset="1"
         id="stop21" />
    </linearGradient>
    <linearGradient
       id="linearGradient1"
       inkscape:collect="always">
      <stop
         style="stop-color:#060214;stop-opacity:1;"
         offset="0"
         id="stop1" />
      <stop
         style="stop-color:#020e20;stop-opacity:1;"
         offset="1"
         id="stop2" />
    </linearGradient>
    <linearGradient
       inkscape:collect="always"
       xlink:href="#linearGradient1"
       id="linearGradient2"
       x1="105"
       y1="0"
       x2="105"
       y2="297"
       gradientUnits="userSpaceOnUse"
       gradientTransform="translate(-210,-297)" />
    <linearGradient
       inkscape:collect="always"
       xlink:href="#linearGradient1"
       id="linearGradient19"
       gradientUnits="userSpaceOnUse"
       gradientTransform="matrix(0.37683553,0,0,0.34633869,-309.19145,-102.86259)"
       x1="105"
       y1="0"
       x2="105"
       y2="297" />
    <linearGradient
       inkscape:collect="always"
       xlink:href="#linearGradient23"
       id="linearGradient24"
       x1="269.776"
       y1="46.880905"
       x2="269.776"
       y2="32.185143"
       gradientUnits="userSpaceOnUse"
       gradientTransform="matrix(0.98939479,0,0,0.98939479,2.8594314,1.3622893)" />
    <linearGradient
       inkscape:collect="always"
       xlink:href="#linearGradient23"
       id="linearGradient26"
       gradientUnits="userSpaceOnUse"
       gradientTransform="matrix(-0.9717195,0,0,-0.9717195,531.62578,89.401015)"
       x1="269.776"
       y1="7.4271722"
       x2="269.776"
       y2="41.432762" />
    <radialGradient
       inkscape:collect="always"
       xlink:href="#linearGradient20"
       id="radialGradient28"
       cx="269.6254"
       cy="45.447098"
       fx="269.6254"
       fy="45.447098"
       r="21.883465"
       gradientTransform="matrix(2.4760043,0,3.8776482e-7,2.3226397,-397.96826,-60.110133)"
       gradientUnits="userSpaceOnUse" />
  </defs>
  <g
     inkscape:label="Layer 1"
     inkscape:groupmode="layer"
     id="layer1">
    <rect
       style="fill:url(#linearGradient19);stroke-width:0.191169;stroke-linecap:round;stroke-linejoin:round;paint-order:fill markers stroke"
       id="rect19"
       width="79.13546"
       height="102.86259"
       x="-309.19144"
       y="-102.86259"
       transform="scale(-1)" />
    <rect
       style="fill:url(#linearGradient2);stroke-width:0.529167;stroke-linecap:round;stroke-linejoin:round;paint-order:fill markers stroke"
       id="rect1"
       width="210"
       height="297"
       x="-210"
       y="-297"
       transform="scale(-1)" />
    <circle
       style="fill:#02020c;fill-opacity:1;stroke-width:0.605306;stroke-linecap:round;stroke-linejoin:round;paint-order:fill markers stroke"
       id="path1"
       cx="105"
       cy="75.110603"
       r="52.405308" />
    <path
       style="fill:none;fill-opacity:1;stroke:#000000;stroke-width:4.23333;stroke-linecap:round;stroke-linejoin:round;stroke-dasharray:none;stroke-opacity:1;paint-order:fill markers stroke"
       id="circle2"
       sodipodi:type="arc"
       sodipodi:cx="105"
       sodipodi:cy="75.110603"
       sodipodi:rx="52.405308"
       sodipodi:ry="52.405308"
       sodipodi:start="0.071279163"
       sodipodi:end="4.712389"
       sodipodi:arc-type="arc"
       d="M 157.27224,78.842848 A 52.405308,52.405308 0 0 1 102.51067,127.45675 52.405308,52.405308 0 0 1 52.609484,73.865584 52.405308,52.405308 0 0 1 105,22.705296"
       sodipodi:open="true" />
    <text
       xml:space="preserve"
       style="font-style:normal;font-variant:normal;font-weight:normal;font-stretch:normal;font-size:30.3258px;line-height:1.2;font-family:Ubuntu;-inkscape-font-specification:Ubuntu;text-align:center;letter-spacing:0px;text-anchor:middle;fill:#49ff55;fill-opacity:1;stroke:none;stroke-width:19.4085;stroke-linecap:round;stroke-linejoin:round;stroke-dasharray:none;stroke-opacity:1;paint-order:fill markers stroke"
       x="105.51553"
       y="83.752594"
       id="text2"><tspan
         sodipodi:role="line"
         id="tspan2"
         style="font-style:normal;font-variant:normal;font-weight:normal;font-stretch:normal;font-family:Ubuntu;-inkscape-font-specification:Ubuntu;letter-spacing:0px;fill:#49ff55;fill-opacity:1;stroke:none;stroke-width:19.4085;stroke-dasharray:none"
         x="105.51553"
         y="83.752594">42:42</tspan></text>
    <rect
       style="fill:#3fdcc5;fill-opacity:1;stroke:none;stroke-width:19.4085;stroke-linecap:round;stroke-linejoin:round;stroke-dasharray:none;stroke-opacity:1;paint-order:fill markers stroke"
       id="rect2"
       width="50.427734"
       height="16.809244"
       x="79.786133"
       y="91.102737"
       ry="8.4046221" />
    <text
       xml:space="preserve"
       style="font-style:normal;font-variant:normal;font-weight:normal;font-stretch:normal;font-size:12.657px;line-height:1.2;font-family:Ubuntu;-inkscape-font-specification:Ubuntu;text-align:center;letter-spacing:0px;text-anchor:middle;fill:#02020c;fill-opacity:1;stroke:none;stroke-width:37.1381;stroke-linecap:round;stroke-linejoin:round;stroke-dasharray:none;stroke-opacity:1;paint-order:fill markers stroke"
       x="104.6899"
       y="103.89932"
       id="text3"><tspan
         sodipodi:role="line"
         id="tspan3"
         style="fill:#02020c;fill-opacity:1;stroke-width:37.1381"
         x="104.6899"
         y="103.89932">PAUSE</tspan></text>
    <text
       xml:space="preserve"
       style="font-style:normal;font-variant:normal;font-weight:normal;font-stretch:normal;font-size:12.657px;line-height:1.1;font-family:Ubuntu;-inkscape-font-specification:Ubuntu;text-align:center;letter-spacing:0px;text-anchor:middle;fill:#3fdcc5;fill-opacity:1;stroke:none;stroke-width:37.1381;stroke-linecap:round;stroke-linejoin:round;stroke-dasharray:none;stroke-opacity:1;paint-order:fill markers stroke"
       x="104.6899"
       y="42.606796"
       id="text4"><tspan
         sodipodi:role="line"
         id="tspan4"
         style="line-height:1.1;fill:#3fdcc5;fill-opacity:1;stroke-width:37.1381"
         x="104.6899"
         y="42.606796">Time to</tspan><tspan
         sodipodi:role="line"
         style="line-height:1.1;fill:#3fdcc5;fill-opacity:1;stroke-width:37.1381"
         x="104.6899"
         y="56.529495"
         id="tspan5">focus!</tspan></text>
    <text
       xml:space="preserve"
       style="font-style:normal;font-variant:normal;font-weight:normal;font-stretch:normal;font-size:12.657px;line-height:1.1;font-family:Ubuntu;-inkscape-font-specification:Ubuntu;text-align:center;letter-spacing:0px;text-anchor:middle;fill:#fdfdfd;fill-opacity:1;stroke:none;stroke-width:37.1381;stroke-linecap:round;stroke-linejoin:round;stroke-dasharray:none;stroke-opacity:1;paint-order:fill markers stroke"
       x="92.918724"
       y="167.85217"
       id="text7"><tspan
         sodipodi:role="line"
         style="line-height:1.1;fill:#fdfdfd;fill-opacity:1;stroke-width:37.1381"
         x="92.918724"
         y="167.85217"
         id="tspan7">Task 1</tspan><tspan
         sodipodi:role="line"
         style="line-height:1.1;fill:#fdfdfd;fill-opacity:1;stroke-width:37.1381"
         x="92.918724"
         y="181.77487"
         id="tspan8">Task 2</tspan><tspan
         sodipodi:role="line"
         style="line-height:1.1;fill:#fdfdfd;fill-opacity:1;stroke-width:37.1381"
         x="92.918724"
         y="195.69757"
         id="tspan9">Task 3</tspan></text>
    <rect
       style="fill:none;fill-opacity:1;stroke:#fdfffe;stroke-width:0.705556;stroke-linecap:round;stroke-linejoin:round;stroke-dasharray:none;stroke-opacity:1;paint-order:fill markers stroke"
       id="rect9"
       width="7.0862484"
       height="7.0862422"
       x="64.511307"
       y="160.05406"
       ry="1.8951629" />
    <rect
       style="fill:none;fill-opacity:1;stroke:#fdfffe;stroke-width:0.705556;stroke-linecap:round;stroke-linejoin:round;stroke-dasharray:none;stroke-opacity:1;paint-order:fill markers stroke"
       id="rect10"
       width="87.841438"
       height="14.502092"
       x="74.438553"
       y="139.36478"
       ry="1.8951628" />
    <rect
       style="fill:#f9f9f9;fill-opacity:1;stroke:#fdffff;stroke-width:0.705556;stroke-linecap:round;stroke-linejoin:round;stroke-dasharray:none;stroke-opacity:1;paint-order:fill markers stroke"
       id="rect11"
       width="29.31921"
       height="9.83815"
       x="40.356838"
       y="141.68616"
       ry="1.8951629" />
    <text
       xml:space="preserve"
       style="font-style:normal;font-variant:normal;font-weight:normal;font-stretch:normal;font-size:12.657px;line-height:1.1;font-family:Ubuntu;-inkscape-font-specification:Ubuntu;text-align:center;letter-spacing:0px;text-anchor:middle;fill:#040719;fill-opacity:1;stroke:none;stroke-width:37.1381;stroke-linecap:round;stroke-linejoin:round;stroke-dasharray:none;stroke-opacity:1;paint-order:fill markers stroke"
       x="54.796219"
       y="150.98456"
       id="text13"><tspan
         sodipodi:role="line"
         style="font-weight:bold;line-height:1.1;fill:#040719;fill-opacity:1;stroke-width:37.1381"
         x="54.796219"
         y="150.98456"
         id="tspan13">ADD</tspan></text>
    <rect
       style="fill:none;fill-opacity:1;stroke:#fdfffe;stroke-width:0.705556;stroke-linecap:round;stroke-linejoin:round;stroke-dasharray:none;stroke-opacity:1;paint-order:fill markers stroke"
       id="rect15"
       width="7.0862484"
       height="7.0862422"
       x="64.511307"
       y="173.41576"
       ry="1.8951629" />
    <rect
       style="fill:none;fill-opacity:1;stroke:#fdfffe;stroke-width:0.705556;stroke-linecap:round;stroke-linejoin:round;stroke-dasharray:none;stroke-opacity:1;paint-order:fill markers stroke"
       id="rect16"
       width="7.0862484"
       height="7.0862422"
       x="64.511307"
       y="186.77745"
       ry="1.8951629" />
    <ellipse
       style="fill:#f9f9f9;fill-opacity:1;stroke:none;stroke-width:0.705556;stroke-linecap:round;stroke-linejoin:round;stroke-dasharray:none;stroke-opacity:1;paint-order:fill markers stroke"
       id="path16"
       cx="446.81821"
       cy="80.41748"
       rx="48.77977"
       ry="49.216003" />
    <path
       style="fill:#f90101;fill-opacity:1;stroke:none;stroke-width:0.705556;stroke-linecap:round;stroke-linejoin:round;stroke-dasharray:none;stroke-opacity:1;paint-order:fill markers stroke"
       id="ellipse17"
       sodipodi:type="arc"
       sodipodi:cx="446.81821"
       sodipodi:cy="80.41748"
       sodipodi:rx="48.77977"
       sodipodi:ry="49.216003"
       sodipodi:start="4.712389"
       sodipodi:end="1.5707963"
       sodipodi:arc-type="slice"
       d="m 446.81821,31.201477 a 48.77977,49.216003 0 0 1 48.77977,49.216003 48.77977,49.216003 0 0 1 -48.77977,49.216 v -49.216 z" />
    <path
       style="fill:#f90101;fill-opacity:1;stroke:none;stroke-width:0.705556;stroke-linecap:round;stroke-linejoin:round;stroke-dasharray:none;stroke-opacity:1;paint-order:fill markers stroke"
       id="path17"
       sodipodi:type="arc"
       sodipodi:cx="446.81821"
       sodipodi:cy="80.41748"
       sodipodi:rx="48.77977"
       sodipodi:ry="49.216003"
       sodipodi:start="4.712389"
       sodipodi:end="1.5707963"
       sodipodi:arc-type="slice"
       d="m 446.81821,31.201477 a 48.77977,49.216003 0 0 1 48.77977,49.216003 48.77977,49.216003 0 0 1 -48.77977,49.216 v -49.216 z"
       inkscape:transform-center-x="-24.471039" />
    <ellipse
       style="fill:#f9f9f9;fill-opacity:1;stroke:none;stroke-width:0.639293;stroke-linecap:round;stroke-linejoin:round;stroke-dasharray:none;stroke-opacity:1;paint-order:fill markers stroke"
       id="ellipse16"
       cx="446.81821"
       cy="80.41748"
       rx="44.198586"
       ry="44.593849" />
    <path
       id="rect18"
       style="fill:#02020c;fill-opacity:1;stroke:url(#radialGradient28);stroke-width:0.79981;stroke-linecap:round;stroke-linejoin:round;paint-order:fill markers stroke"
       d="M 248.14196,7.2145467 V 23.984066 c 0,4.804928 0.0562,5.620226 5.37125,9.789066 8.18687,6.417806 0.22623,0.175035 13.06535,10.214364 0.93587,0.802903 0.7497,2.272514 0,2.919718 -4.35553,3.404083 -8.71391,6.80453 -13.06535,10.213847 -5.43703,4.26456 -5.37125,4.984139 -5.37125,9.789067 v 16.769519 h 42.96689 V 66.910128 c 0,-4.804928 0.0658,-5.524507 -5.37125,-9.789067 -8.14818,-6.388514 -0.18648,-0.143626 -13.06535,-10.213847 -0.7497,-0.647204 -0.93587,-2.116815 0,-2.919718 4.35545,-3.404364 8.71381,-6.805002 13.06535,-10.214364 5.43704,-4.264558 5.37125,-4.984138 5.37125,-9.789066 V 7.2145467 Z"
       sodipodi:nodetypes="csccccsccsccccscc" />
    <path
       id="path21"
       style="fill:url(#linearGradient24);stroke:none;stroke-width:0.762774;stroke-linecap:round;stroke-linejoin:round;stroke-opacity:1;paint-order:fill markers stroke"
       d="m 248.72911,12.832958 41.38485,0 v 16.595896 l -20.4885,16.018243 -10.24425,-8.009122 c 0,0 -1.1199,-0.911353 -5.87957,-4.587204 -4.75967,-3.675851 -4.77253,-3.951712 -4.77253,-11.719865 0,-7.768153 0,-8.297948 0,-8.297948 z"
       sodipodi:nodetypes="ccccczzc" />
    <text
       xml:space="preserve"
       style="font-style:normal;font-variant:normal;font-weight:normal;font-stretch:normal;font-size:15.7841px;line-height:1.2;font-family:Ubuntu;-inkscape-font-specification:Ubuntu;text-align:center;letter-spacing:0px;text-anchor:middle;fill:#49ff55;fill-opacity:1;stroke:none;stroke-width:10.1018;stroke-linecap:round;stroke-linejoin:round;stroke-dasharray:none;stroke-opacity:1;paint-order:fill markers stroke"
       x="269.8938"
       y="20.625154"
       id="text18"><tspan
         sodipodi:role="line"
         id="tspan18"
         style="font-style:normal;font-variant:normal;font-weight:normal;font-stretch:normal;font-family:Ubuntu;-inkscape-font-specification:Ubuntu;letter-spacing:0px;fill:#49ff55;fill-opacity:1;stroke:none;stroke-width:10.1018;stroke-dasharray:none"
         x="269.8938"
         y="20.625154">42:42</tspan></text>
    <path
       id="path26"
       style="fill:url(#linearGradient26);stroke:none;stroke-width:0.749147;stroke-linecap:round;stroke-linejoin:round;stroke-opacity:1;paint-order:fill markers stroke"
       d="M 289.74794,82.255181 H 249.50298 V 61.835853 l 20.12248,-15.732081 20.12248,15.732081 z"
       sodipodi:nodetypes="cccccc" />
    <text
       xml:space="preserve"
       style="font-style:normal;font-variant:normal;font-weight:normal;font-stretch:normal;font-size:12.8113px;line-height:1.2;font-family:Ubuntu;-inkscape-font-specification:Ubuntu;text-align:center;letter-spacing:0px;text-anchor:middle;fill:#040719;fill-opacity:1;stroke:none;stroke-width:8.19921;stroke-linecap:round;stroke-linejoin:round;stroke-dasharray:none;stroke-opacity:1;paint-order:fill markers stroke"
       x="269.94135"
       y="80.232109"
       id="text26"><tspan
         sodipodi:role="line"
         id="tspan26"
         style="font-style:normal;font-variant:normal;font-weight:normal;font-stretch:normal;font-family:Ubuntu;-inkscape-font-specification:Ubuntu;letter-spacing:0px;fill:#040719;fill-opacity:1;stroke:none;stroke-width:8.19921;stroke-dasharray:none"
         x="269.94135"
         y="80.232109">Pause</tspan></text>
  </g>
</svg>
